{
  "resourceType": "SearchParameter",
  "id": "observation-definition-identifier",
  "name": "Observation Definition identifier",
  "status": "active",
  "description": "Allows searching for ObservationDefinition resources that have an identifier",
  "code": "observation-definition-identifier",
  "base": [
    "ObservationDefinition"
  ],
  "type": "token",
  "expression": "ObservationDefinition.identifier",
  "xpathUsage": "normal"
}