{
  "resourceType": "OperationDefinition",
  "name": "getByIdentifier",
  "status": "active",
  "kind": "query",
  "affectsState": false,
  "code": "getByIdentifier",
  "resource": [
    "Questionnaire"
  ],
  "system": false,
  "type": true,
  "instance": false,
  "parameter": [
    {
      "name": "identifier",
      "use": "in",
      "min": 1,
      "max": "1",
      "type": "string",
      "searchType": "token"
    },
    {
      "name": "jurisdiction",
      "use": "in",
      "min": 0,
      "max": "1",
      "type": "string",
      "searchType": "token"
    }
  ]
}
